…
example <- 
  tibble::tibble(
  para = rnorm(n = 30, mean = 300, sd = 20) %>% round(digits = 2),
  dose = rep(rep(c("dose_1", "dose_2", "dose_3", "dose_4", "dose_5"), each = 2), 3),
  date = rep(c("date_1", "date_2", "date_3"), each = 10)) %>% 
  group_by(dose, date) %>% 
  mutate(mean = mean(para)) %>% 
  mutate(sd = sd(para)) %>% 
  mutate(cv = sd/mean)

example
```

    ## # A tibble: 30 × 6
    ## # Groups:   dose, date [15]
    ##     para dose   date    mean    sd     cv
    ##    <dbl> <chr>  <chr>  <dbl> <dbl>  <dbl>
    ##  1  286. dose_1 date_1  289.  4.84 0.0167
    ##  2  293. dose_1 date_1  289.  4.84 0.0167
    ##  3  290. dose_2 date_1  299. 13.6  0.0455
    ##  4  309. dose_2 date_1  299. 13.6  0.0455
    ##  5  277. dose_3 date_1  303. 37.0  0.122 
    ##  6  329. dose_3 date_1  303. 37.0  0.122 
    ##  7  300. dose_4 date_1  307.  9.31 0.0303
    ##  8  313. dose_4 date_1  307.  9.31 0.0303
    ##  9  306. dose_5 date_1  286. 28.7  0.100 
    ## 10  265. dose_5 date_1  286. 28.7  0.100 
    ## # ℹ 20 more rows
…
